id,level,section,exam,question,description,option1,option2,option3,option4,answer,image,video
1,1,1,1,This is the test question,This is the description of correct answer,this is option1,this is option2,this is option3,this is option4,This is thee test correct answer,,
1,1,1,1,This is the test question,This is the description of correct answer,this is option1,this is option2,this is option3,this is option4,This is thee test correct answer,,
1,1,1,1,This is the test question,This is the description of correct answer,this is option1,this is option2,this is option3,this is option4,This is thee test correct answer,,
1,1,1,1,This is the test question,This is the description of correct answer,this is option1,this is option2,this is option3,this is option4,This is thee test correct answer,,
1,1,1,1,This is the test question,This is the description of correct answer,this is option1,this is option2,this is option3,this is option4,This is thee test correct answer,,
1,1,1,1,This is the test question,This is the description of correct answer,this is option1,this is option2,this is option3,this is option4,This is thee test correct answer,,
1,1,1,1,This is the test question,This is the description of correct answer,this is option1,this is option2,this is option3,this is option4,This is thee test correct answer,,
1,1,1,1,This is the test question,This is the description of correct answer,this is option1,this is option2,this is option3,this is option4,This is thee test correct answer,,
1,1,1,1,This is the test question,This is the description of correct answer,this is option1,this is option2,this is option3,this is option4,This is thee test correct answer,,
1,1,1,1,This is the test question,This is the description of correct answer,this is option1,this is option2,this is option3,this is option4,This is thee test correct answer,,
1,1,1,1,This is the test question,This is the description of correct answer,this is option1,this is option2,this is option3,this is option4,This is thee test correct answer,,
1,1,1,1,This is the test question,This is the description of correct answer,this is option1,this is option2,this is option3,this is option4,This is thee test correct answer,,
1,1,1,1,This is the test question,This is the description of correct answer,this is option1,this is option2,this is option3,this is option4,This is thee test correct answer,,
1,1,1,1,This is the test question,This is the description of correct answer,this is option1,this is option2,this is option3,this is option4,This is thee test correct answer,,
1,1,1,1,This is the test question,This is the description of correct answer,this is option1,this is option2,this is option3,this is option4,This is thee test correct answer,,
1,1,1,1,This is the test question,This is the description of correct answer,this is option1,this is option2,this is option3,this is option4,This is thee test correct answer,,
1,1,1,1,This is the test question,This is the description of correct answer,this is option1,this is option2,this is option3,this is option4,This is thee test correct answer,,
1,1,1,1,This is the test question,This is the description of correct answer,this is option1,this is option2,this is option3,this is option4,This is thee test correct answer,,
1,1,1,1,This is the test question,This is the description of correct answer,this is option1,this is option2,this is option3,this is option4,This is thee test correct answer,,
1,1,1,1,This is the test question,This is the description of correct answer,this is option1,this is option2,this is option3,this is option4,This is thee test correct answer,,
1,1,1,1,This is the test question,This is the description of correct answer,this is option1,this is option2,this is option3,this is option4,This is thee test correct answer,,
1,1,1,1,This is the test question,This is the description of correct answer,this is option1,this is option2,this is option3,this is option4,This is thee test correct answer,,
1,1,1,1,This is the test question,This is the description of correct answer,this is option1,this is option2,this is option3,this is option4,This is thee test correct answer,,
1,1,1,1,This is the test question,This is the description of correct answer,this is option1,this is option2,this is option3,this is option4,This is thee test correct answer,,
1,1,1,1,This is the test question,This is the description of correct answer,this is option1,this is option2,this is option3,this is option4,This is thee test correct answer,,
1,1,1,1,This is the test question,This is the description of correct answer,this is option1,this is option2,this is option3,this is option4,This is thee test correct answer,,
1,1,1,1,This is the test question,This is the description of correct answer,this is option1,this is option2,this is option3,this is option4,This is thee test correct answer,,
1,1,1,1,This is the test question,This is the description of correct answer,this is option1,this is option2,this is option3,this is option4,This is thee test correct answer,,
1,1,1,1,This is the test question,This is the description of correct answer,this is option1,this is option2,this is option3,this is option4,This is thee test correct answer,,
1,1,1,1,This is the test question,This is the description of correct answer,this is option1,this is option2,this is option3,this is option4,This is thee test correct answer,,
1,1,1,1,This is the test question,This is the description of correct answer,this is option1,this is option2,this is option3,this is option4,This is thee test correct answer,,
1,1,1,1,This is the test question,This is the description of correct answer,this is option1,this is option2,this is option3,this is option4,This is thee test correct answer,,
1,1,1,1,This is the test question,This is the description of correct answer,this is option1,this is option2,this is option3,this is option4,This is thee test correct answer,,
1,1,1,1,This is the test question,This is the description of correct answer,this is option1,this is option2,this is option3,this is option4,This is thee test correct answer,,
1,1,1,1,This is the test question,This is the description of correct answer,this is option1,this is option2,this is option3,this is option4,This is thee test correct answer,,
1,1,1,1,This is the test question,This is the description of correct answer,this is option1,this is option2,this is option3,this is option4,This is thee test correct answer,,
1,1,1,1,This is the test question,This is the description of correct answer,this is option1,this is option2,this is option3,this is option4,This is thee test correct answer,,
1,1,1,1,This is the test question,This is the description of correct answer,this is option1,this is option2,this is option3,this is option4,This is thee test correct answer,,
1,1,1,1,This is the test question,This is the description of correct answer,this is option1,this is option2,this is option3,this is option4,This is thee test correct answer,,
1,1,1,1,This is the test question,This is the description of correct answer,this is option1,this is option2,this is option3,this is option4,This is thee test correct answer,,
1,1,1,1,This is the test question,This is the description of correct answer,this is option1,this is option2,this is option3,this is option4,This is thee test correct answer,,
1,1,1,1,This is the test question,This is the description of correct answer,this is option1,this is option2,this is option3,this is option4,This is thee test correct answer,,
1,1,1,1,This is the test question,This is the description of correct answer,this is option1,this is option2,this is option3,this is option4,This is thee test correct answer,,
1,1,1,1,This is the test question,This is the description of correct answer,this is option1,this is option2,this is option3,this is option4,This is thee test correct answer,,
1,1,1,1,This is the test question,This is the description of correct answer,this is option1,this is option2,this is option3,this is option4,This is thee test correct answer,,
1,1,1,1,This is the test question,This is the description of correct answer,this is option1,this is option2,this is option3,this is option4,This is thee test correct answer,,
1,1,1,1,This is the test question,This is the description of correct answer,this is option1,this is option2,this is option3,this is option4,This is thee test correct answer,,
1,1,1,1,This is the test question,This is the description of correct answer,this is option1,this is option2,this is option3,this is option4,This is thee test correct answer,,
1,1,1,1,This is the test question,This is the description of correct answer,this is option1,this is option2,this is option3,this is option4,This is thee test correct answer,,
1,1,1,1,This is the test question,This is the description of correct answer,this is option1,this is option2,this is option3,this is option4,This is thee test correct answer,,
1,1,1,1,This is the test question,This is the description of correct answer,this is option1,this is option2,this is option3,this is option4,This is thee test correct answer,,
1,1,1,1,This is the test question,This is the description of correct answer,this is option1,this is option2,this is option3,this is option4,This is thee test correct answer,,
1,1,1,1,This is the test question,This is the description of correct answer,this is option1,this is option2,this is option3,this is option4,This is thee test correct answer,,
1,1,1,1,This is the test question,This is the description of correct answer,this is option1,this is option2,this is option3,this is option4,This is thee test correct answer,,
1,1,1,1,This is the test question,This is the description of correct answer,this is option1,this is option2,this is option3,this is option4,This is thee test correct answer,,
1,1,1,1,This is the test question,This is the description of correct answer,this is option1,this is option2,this is option3,this is option4,This is thee test correct answer,,
1,1,1,1,This is the test question,This is the description of correct answer,this is option1,this is option2,this is option3,this is option4,This is thee test correct answer,,
1,1,1,1,This is the test question,This is the description of correct answer,this is option1,this is option2,this is option3,this is option4,This is thee test correct answer,,
1,1,1,1,This is the test question,This is the description of correct answer,this is option1,this is option2,this is option3,this is option4,This is thee test correct answer,,
1,1,1,1,This is the test question,This is the description of correct answer,this is option1,this is option2,this is option3,this is option4,This is thee test correct answer,,
1,1,1,1,This is the test question,This is the description of correct answer,this is option1,this is option2,this is option3,this is option4,This is thee test correct answer,,
1,1,1,1,This is the test question,This is the description of correct answer,this is option1,this is option2,this is option3,this is option4,This is thee test correct answer,,
1,1,1,1,This is the test question,This is the description of correct answer,this is option1,this is option2,this is option3,this is option4,This is thee test correct answer,,
1,1,1,1,This is the test question,This is the description of correct answer,this is option1,this is option2,this is option3,this is option4,This is thee test correct answer,,
1,1,1,1,This is the test question,This is the description of correct answer,this is option1,this is option2,this is option3,this is option4,This is thee test correct answer,,
1,1,1,1,This is the test question,This is the description of correct answer,this is option1,this is option2,this is option3,this is option4,This is thee test correct answer,,
1,1,1,1,This is the test question,This is the description of correct answer,this is option1,this is option2,this is option3,this is option4,This is thee test correct answer,,
1,1,1,1,This is the test question,This is the description of correct answer,this is option1,this is option2,this is option3,this is option4,This is thee test correct answer,,
1,1,1,1,This is the test question,This is the description of correct answer,this is option1,this is option2,this is option3,this is option4,This is thee test correct answer,,
1,1,1,1,This is the test question,This is the description of correct answer,this is option1,this is option2,this is option3,this is option4,This is thee test correct answer,,
1,1,1,1,This is the test question,This is the description of correct answer,this is option1,this is option2,this is option3,this is option4,This is thee test correct answer,,
1,1,1,1,This is the test question,This is the description of correct answer,this is option1,this is option2,this is option3,this is option4,This is thee test correct answer,,
1,1,1,1,This is the test question,This is the description of correct answer,this is option1,this is option2,this is option3,this is option4,This is thee test correct answer,,
1,1,1,1,This is the test question,This is the description of correct answer,this is option1,this is option2,this is option3,this is option4,This is thee test correct answer,,
1,1,1,1,This is the test question,This is the description of correct answer,this is option1,this is option2,this is option3,this is option4,This is thee test correct answer,,
1,1,1,1,This is the test question,This is the description of correct answer,this is option1,this is option2,this is option3,this is option4,This is thee test correct answer,,
1,1,1,1,This is the test question,This is the description of correct answer,this is option1,this is option2,this is option3,this is option4,This is thee test correct answer,,
1,1,1,1,This is the test question,This is the description of correct answer,this is option1,this is option2,this is option3,this is option4,This is thee test correct answer,,
1,1,1,1,This is the test question,This is the description of correct answer,this is option1,this is option2,this is option3,this is option4,This is thee test correct answer,,
1,1,1,1,This is the test question,This is the description of correct answer,this is option1,this is option2,this is option3,this is option4,This is thee test correct answer,,
1,1,1,1,This is the test question,This is the description of correct answer,this is option1,this is option2,this is option3,this is option4,This is thee test correct answer,,
1,1,1,1,This is the test question,This is the description of correct answer,this is option1,this is option2,this is option3,this is option4,This is thee test correct answer,,
1,1,1,1,This is the test question,This is the description of correct answer,this is option1,this is option2,this is option3,this is option4,This is thee test correct answer,,
1,1,1,1,This is the test question,This is the description of correct answer,this is option1,this is option2,this is option3,this is option4,This is thee test correct answer,,
1,1,1,1,This is the test question,This is the description of correct answer,this is option1,this is option2,this is option3,this is option4,This is thee test correct answer,,
1,1,1,1,This is the test question,This is the description of correct answer,this is option1,this is option2,this is option3,this is option4,This is thee test correct answer,,
